análise-exploratária-2019
…
preco_outliers <- ano_2019 %>%
  filter(preco < quantile(preco, 0.25) - 1.5 * IQR(preco) | preco > quantile(preco, 0.75) + 1.5 * IQR(preco))

preco_outliers_sku <- sku_price %>%
  filter(preco < quantile(preco, 0.25) - 1.5 * IQR(preco) | preco > quantile(preco, 0.75) + 1.5 * IQR(preco))

print("Outliers na variável preço:")

## [1] "Outliers na variável preço:"

print(preco_outliers)

## # A tibble: 403,957 × 7
##    data       cod_vendedor cod_loja      cod_transacao quantidade cod_prod preco
##    <date>            <int> <chr>         <chr>              <int>    <dbl> <dbl>
##  1 2019-12-24          146 MG_39         000137298c             4  6.31e11  887.
##  2 2019-12-26          578 SP Capital S… 0017bedb43             3  2.48e11 1134.
##  3 2019-12-25          176 SP Capital S… 0032350825             6  9.39e11  870.
##  4 2019-12-26          910 RS_21         005721a523             5  8.09e11 1198.
##  5 2019-12-27          908 SP Capital L… 005b3ea189             6  2.49e11 2538.
##  6 2019-12-31          387 SP Interior_… 0079d459ae             8  8.30e11  876.
##  7 2019-12-24           30 RJ_50         00a6144646             3  4.79e11  848.
##  8 2019-12-27          576 SP Capital L… 00a7e30d34             2  2.48e11  756.
##  9 2019-12-23          782 RJ_31         00aa714dbf             6  8.59e11 2425.
## 10 2019-12-25          842 SP Capital C… 00ed15fd12             2  7.71e11 1031.
## # ℹ 403,947 more rows

print("Outliers na variável preco dos produtos:")

## [1] "Outliers na variável preco dos produtos:"

print(preco_outliers_sku)

## # A tibble: 625 × 4
##        cod_prod data_inicio data_fim   preco
##           <dbl> <chr>       <chr>      <dbl>
##  1 185584251496 2021-04-13  2021-08-06  386.
##  2 185584251496 2021-08-07  2021-11-30  388.
##  3 185584251496 2021-12-01  2022-03-26  390.
##  4 185584251496 2022-03-27  2022-07-20  404.
##  5 185584251496 2022-07-21  2022-11-13  412.
##  6 185584251496 2022-11-14  2023-03-09  428.
##  7 185584251496 2023-03-10  2023-07-03  439.
##  8 185584251496 2023-07-04  2023-10-27  430.
##  9 185584251496 2023-10-28  2024-02-20  448.
## 10 185584251496 2024-02-21  2024-06-13  449.
## # ℹ 615 more rows
…
